\relax 
\providecommand\hyper@newdestlabel[2]{}
\providecommand\HyperFirstAtBeginDocument{\AtBeginDocument}
\HyperFirstAtBeginDocument{\ifx\hyper@anchor\@undefined
\global\let\oldcontentsline\contentsline
\gdef\contentsline#1#2#3#4{\oldcontentsline{#1}{#2}{#3}}
\global\let\oldnewlabel\newlabel
\gdef\newlabel#1#2{\newlabelxx{#1}#2}
\gdef\newlabelxx#1#2#3#4#5#6{\oldnewlabel{#1}{{#2}{#3}}}
\AtEndDocument{\ifx\hyper@anchor\@undefined
\let\contentsline\oldcontentsline
\let\newlabel\oldnewlabel
\fi}
\fi}
\global\let\hyper@last\relax 
\gdef\HyperFirstAtBeginDocument#1{#1}
\providecommand\HyField@AuxAddToFields[1]{}
\providecommand\HyField@AuxAddToCoFields[2]{}
\citation{Roumen2015}
\@writefile{toc}{\contentsline {section}{Abstract}{1}{section*.1}\protected@file@percent }
\@writefile{toc}{\contentsline {section}{\numberline {1}Introduction}{1}{section.1}\protected@file@percent }
\citation{Craig1995}
\citation{Egeth1997}
\citation{Chun2002}
\citation{Asplund2010}
\citation{Egeth1997,Squires1975,Katayama1998,Yamaguchi1991}
\citation{Chun2002,Asplund2010,Horstmann2015,Vachon2017,Parmentier2011}
\citation{Mars2008,Horstmann2015}
\citation{Folk1992,Folk2002}
\citation{Ljungberg2012}
\citation{Asplund2010,Horstmann2015,Ljungberg2012}
\citation{Egeth1997}
\citation{Baldwin2012,Merlo2011,Chen2008,Stanley2006,Kochhar2012,Marsalia2016}
\citation{Cholewiak1984}
\citation{Cholewiak1984}
\citation{Gibson2005}
\citation{Roumen2015}
\citation{Je2017}
\citation{Zheng2013}
\citation{Marsalia2016}
\citation{Qian2014}
\citation{Saket2013,Alvina2015}
\@writefile{toc}{\contentsline {section}{\numberline {2}Related Work}{3}{section.2}\protected@file@percent }
\@writefile{toc}{\contentsline {subsection}{\numberline {2.1}Notifications Presented to the Fingers}{3}{subsection.2.1}\protected@file@percent }
\@writefile{toc}{\contentsline {subsection}{\numberline {2.2}Distraction from Vibrotactile or Auditory Sources}{3}{subsection.2.2}\protected@file@percent }
\citation{Marsalia2016}
\citation{Stanley2006}
\citation{Kochhar2012}
\citation{Hoggan2007}
\citation{Hoggan2008}
\citation{Egeth1997}
\citation{Carrasco2004,Egeth1997,Baldwin2012,Merlo2011,Chen2008}
\citation{Squires1975,Katayama1998,Yamaguchi1991}
\citation{Mars2008}
\citation{Yamaguchi1991}
\citation{Mars2008}
\citation{Donchin2000}
\citation{Brouwer2010}
\@writefile{toc}{\contentsline {subsection}{\numberline {2.3}Facilitatory Interactions Across Modalities}{4}{subsection.2.3}\protected@file@percent }
\@writefile{toc}{\contentsline {subsection}{\numberline {2.4}Attention's Effects and Control}{4}{subsection.2.4}\protected@file@percent }
\@writefile{toc}{\contentsline {subsection}{\numberline {2.5}Oddball Experiments}{4}{subsection.2.5}\protected@file@percent }
\citation{Chun2002}
\citation{Dux2009}
\citation{Hillstrom2002,Dellacqua2006}
\citation{Soto2002}
\citation{Craig1995}
\citation{Murphy2016,Murphy2018}
\citation{Asplund2010,Horstmann2015}
\citation{Vachon2017}
\citation{Parmentier2011,Ljungberg2012}
\citation{Folk1992,Folk2002}
\citation{Parmentier2011,Ljungberg2012,Yamaguchi1991}
\citation{Parmentier2011,Marsalia2016}
\citation{Craig1995,Hillstrom2002}
\citation{Weinstein1962}
\citation{Craig1995,Hillstrom2002}
\@writefile{toc}{\contentsline {subsection}{\numberline {2.6}Attentional Trade-Offs}{5}{subsection.2.6}\protected@file@percent }
\@writefile{toc}{\contentsline {section}{\numberline {3}Experiments 1A and 1B: Effects of Distraction on Vibrotactile Location Detection}{5}{section.3}\protected@file@percent }
\@writefile{toc}{\contentsline {subsection}{\numberline {3.1}Common Apparatus}{5}{subsection.3.1}\protected@file@percent }
\citation{Asplund2010,Horstmann2015,Folk2002,Vachon2017,Yamaguchi1991}
\@writefile{lof}{\contentsline {figure}{\numberline {1}{\ignorespaces Apparatus used in Experiment 1A, with four motors on the fingers and one on the wrist. In Experiment 1B, the wrist motor was not attached. \relax }}{6}{figure.caption.2}\protected@file@percent }
\providecommand*\caption@xref[2]{\@setref\relax\@undefined{#1}}
\newlabel{fig:1a-apparatus}{{1}{6}{Apparatus used in Experiment 1A, with four motors on the fingers and one on the wrist. In Experiment 1B, the wrist motor was not attached. \relax }{figure.caption.2}{}}
\@writefile{toc}{\contentsline {subsection}{\numberline {3.2}Common Procedure}{6}{subsection.3.2}\protected@file@percent }
\citation{Mcbride2017}
\citation{Murphy2016,Murphy2018,Obana2019}
\@writefile{toc}{\contentsline {subsection}{\numberline {3.3}Common Task and Stimuli}{7}{subsection.3.3}\protected@file@percent }
\@writefile{toc}{\contentsline {subsection}{\numberline {3.4}Common Design}{7}{subsection.3.4}\protected@file@percent }
\@writefile{toc}{\contentsline {subsection}{\numberline {3.5}Common Analytical Approach}{7}{subsection.3.5}\protected@file@percent }
\citation{Barr2013}
\citation{Bates2015}
\citation{Fox2011}
\citation{Benjamini1995}
\citation{Asplund2014,Sergent2004}
\@writefile{toc}{\contentsline {section}{\numberline {4}Experiment 1A: Effects of Vibrotactile Surprise Distractors on Target Detection}{8}{section.4}\protected@file@percent }
\@writefile{toc}{\contentsline {subsection}{\numberline {4.1}Participants}{8}{subsection.4.1}\protected@file@percent }
\@writefile{toc}{\contentsline {subsection}{\numberline {4.2}Results}{8}{subsection.4.2}\protected@file@percent }
\@writefile{toc}{\contentsline {paragraph}{Trial Type.}{8}{section*.3}\protected@file@percent }
\@writefile{toc}{\contentsline {paragraph}{Session Time.}{8}{section*.5}\protected@file@percent }
\@writefile{toc}{\contentsline {paragraph}{Finger.}{8}{section*.6}\protected@file@percent }
\@writefile{lof}{\contentsline {figure}{\numberline {2}{\ignorespaces Recognition rate for Experiment 1A. Error bars represent the standard error of the mean. Each value for time during session represents two blocks, the training block is not counted. \relax }}{9}{figure.caption.4}\protected@file@percent }
\newlabel{fig:1a-results}{{2}{9}{Recognition rate for Experiment 1A. Error bars represent the standard error of the mean. Each value for time during session represents two blocks, the training block is not counted. \relax }{figure.caption.4}{}}
\@writefile{toc}{\contentsline {paragraph}{Interactions.}{9}{section*.8}\protected@file@percent }
\citation{Obana2019}
\citation{Obana2019}
\citation{Font2013}
\citation{Shen2006,Obana2019}
\@writefile{lof}{\contentsline {figure}{\numberline {3}{\ignorespaces Confusion matrices for Experiment 1A. Stimuli are columns, responses rows. Accuracy is in \%. The $\frac  {\DOTSI \sumop \slimits@ }{4}$ column shows how frequently each response was chosen. Equally distributed answers have a value of 25. Higher values suggests that this answer is chosen more often. Finger 2 is index finger, 3 is middle finger, 4 is ring, 5 is pinky. \relax }}{10}{figure.caption.7}\protected@file@percent }
\newlabel{fig:1a-confusion}{{3}{10}{Confusion matrices for Experiment 1A. Stimuli are columns, responses rows. Accuracy is in \%. The $\frac {\sum }{4}$ column shows how frequently each response was chosen. Equally distributed answers have a value of 25. Higher values suggests that this answer is chosen more often. Finger 2 is index finger, 3 is middle finger, 4 is ring, 5 is pinky. \relax }{figure.caption.7}{}}
\@writefile{toc}{\contentsline {subsection}{\numberline {4.3}Discussion}{10}{subsection.4.3}\protected@file@percent }
\@writefile{toc}{\contentsline {section}{\numberline {5}Experiment 1B: Effects of Auditory Surprise Distractors on Target Detection}{10}{section.5}\protected@file@percent }
\@writefile{toc}{\contentsline {subsection}{\numberline {5.1}Participants}{11}{subsection.5.1}\protected@file@percent }
\@writefile{toc}{\contentsline {subsection}{\numberline {5.2}Results}{11}{subsection.5.2}\protected@file@percent }
\@writefile{toc}{\contentsline {paragraph}{Trial Type.}{11}{section*.9}\protected@file@percent }
\@writefile{toc}{\contentsline {paragraph}{Session Time.}{11}{section*.11}\protected@file@percent }
\@writefile{toc}{\contentsline {paragraph}{Finger.}{11}{section*.12}\protected@file@percent }
\@writefile{toc}{\contentsline {paragraph}{Interactions.}{11}{section*.14}\protected@file@percent }
\@writefile{lof}{\contentsline {figure}{\numberline {4}{\ignorespaces Recognition rate for Experiment 1B. Error bars represent the standard error of the mean. Each value for time during the session represents two blocks. \relax }}{12}{figure.caption.10}\protected@file@percent }
\newlabel{fig:1b-results}{{4}{12}{Recognition rate for Experiment 1B. Error bars represent the standard error of the mean. Each value for time during the session represents two blocks. \relax }{figure.caption.10}{}}
\@writefile{lof}{\contentsline {figure}{\numberline {5}{\ignorespaces Confusion matrices for Experiment 1B. Stimuli are columns, responses rows. Accuracy is reported as a percentage. Finger 2 is index finger, 3 is middle finger, 4 is ring, 5 is pinky. \relax }}{12}{figure.caption.13}\protected@file@percent }
\newlabel{fig:1b-confusion}{{5}{12}{Confusion matrices for Experiment 1B. Stimuli are columns, responses rows. Accuracy is reported as a percentage. Finger 2 is index finger, 3 is middle finger, 4 is ring, 5 is pinky. \relax }{figure.caption.13}{}}
\@writefile{toc}{\contentsline {subsection}{\numberline {5.3}Discussion}{12}{subsection.5.3}\protected@file@percent }
\@writefile{toc}{\contentsline {paragraph}{Experiment 1B}{12}{section*.15}\protected@file@percent }
\citation{Hillstrom2002,Soto2002,Dellacqua2006}
\citation{Folk1992,Folk2002}
\citation{VegaBermudez2001,King2010,Sathian1996}
\@writefile{toc}{\contentsline {paragraph}{Experiments 1A and 1B}{13}{section*.16}\protected@file@percent }
\citation{Kaaresoja2005,Alvina2015,Saket2013,Yatani2009,Yatani2012}
\citation{Roumen2015,Je2017}
\citation{Peirce2007}
\@writefile{toc}{\contentsline {section}{\numberline {6}Experiments 2A and 2B: Effects of Surprise Distractors on Vibrotactile Pattern Recognition}{14}{section.6}\protected@file@percent }
\@writefile{toc}{\contentsline {subsection}{\numberline {6.1}Common Apparatus}{14}{subsection.6.1}\protected@file@percent }
\@writefile{toc}{\contentsline {subsection}{\numberline {6.2}Common Procedure}{14}{subsection.6.2}\protected@file@percent }
\@writefile{toc}{\contentsline {subsection}{\numberline {6.3}Common Task and Stimuli}{14}{subsection.6.3}\protected@file@percent }
\@writefile{lof}{\contentsline {figure}{\numberline {6}{\ignorespaces (A) Vibration patterns used in Experiment 2. The waveforms were recorded with a microphone placed near the suspended vibration motor. Areas shaded in light blue represent the time periods when power was supplied to the vibration motor. (B) Apparatus used in Experiment 2. In Experiment 2B, the wrist motor was not attached. (C) Participants made responses after discriminating 4-alternative forced choices (LL, SL, LS, or SS) using 'j', 'h', 'g', or 'f' keys respectively. Illustration for a right-handed participants inputting answers with their non-dominant hand. \relax }}{15}{figure.caption.17}\protected@file@percent }
\newlabel{fig:2a-apparatus}{{6}{15}{(A) Vibration patterns used in Experiment 2. The waveforms were recorded with a microphone placed near the suspended vibration motor. Areas shaded in light blue represent the time periods when power was supplied to the vibration motor. (B) Apparatus used in Experiment 2. In Experiment 2B, the wrist motor was not attached. (C) Participants made responses after discriminating 4-alternative forced choices (LL, SL, LS, or SS) using 'j', 'h', 'g', or 'f' keys respectively. Illustration for a right-handed participants inputting answers with their non-dominant hand. \relax }{figure.caption.17}{}}
\@writefile{toc}{\contentsline {subsection}{\numberline {6.4}Common Design}{15}{subsection.6.4}\protected@file@percent }
\@writefile{toc}{\contentsline {subsection}{\numberline {6.5}Common Analytical Approach}{16}{subsection.6.5}\protected@file@percent }
\@writefile{toc}{\contentsline {section}{\numberline {7}Experiment 2A: Effects of Vibrotactile Surprise Distractors on Target Pattern Recognition}{16}{section.7}\protected@file@percent }
\@writefile{toc}{\contentsline {subsection}{\numberline {7.1}Participants}{16}{subsection.7.1}\protected@file@percent }
\@writefile{toc}{\contentsline {subsection}{\numberline {7.2}Results}{16}{subsection.7.2}\protected@file@percent }
\@writefile{toc}{\contentsline {paragraph}{Trial Type.}{16}{section*.19}\protected@file@percent }
\@writefile{toc}{\contentsline {paragraph}{Session Time.}{16}{section*.20}\protected@file@percent }
\@writefile{toc}{\contentsline {paragraph}{Pattern.}{16}{section*.21}\protected@file@percent }
\@writefile{toc}{\contentsline {paragraph}{Interactions.}{16}{section*.23}\protected@file@percent }
\@writefile{lof}{\contentsline {figure}{\numberline {7}{\ignorespaces Recognition rate for Experiment 2A for No Surprise (target-only) trials (black dotted line), and for Surprise trials at each SOA value. Error bars represent the standard error of the mean. \relax }}{17}{figure.caption.18}\protected@file@percent }
\newlabel{fig:2a-results}{{7}{17}{Recognition rate for Experiment 2A for No Surprise (target-only) trials (black dotted line), and for Surprise trials at each SOA value. Error bars represent the standard error of the mean. \relax }{figure.caption.18}{}}
\@writefile{toc}{\contentsline {subsection}{\numberline {7.3}Discussion}{17}{subsection.7.3}\protected@file@percent }
\@writefile{lof}{\contentsline {figure}{\numberline {8}{\ignorespaces Confusion matrices for Experiment 2A. Stimuli are columns, responses rows. Accuracy is in \%. The $\frac  {\DOTSI \sumop \slimits@ }{4}$ column shows how frequently each response was chosen. Equally distributed answers have a value of 25. Higher values suggests that this answer is chosen more often. Finger 2 is index finger, 3 is middle finger, 4 is ring, 5 is pinky. \relax }}{18}{figure.caption.22}\protected@file@percent }
\newlabel{fig:2a-confusion}{{8}{18}{Confusion matrices for Experiment 2A. Stimuli are columns, responses rows. Accuracy is in \%. The $\frac {\sum }{4}$ column shows how frequently each response was chosen. Equally distributed answers have a value of 25. Higher values suggests that this answer is chosen more often. Finger 2 is index finger, 3 is middle finger, 4 is ring, 5 is pinky. \relax }{figure.caption.22}{}}
\@writefile{toc}{\contentsline {section}{\numberline {8}Experiment 2B: Effects of Auditory Surprise Distractors on Target Pattern Recognition}{18}{section.8}\protected@file@percent }
\@writefile{lof}{\contentsline {figure}{\numberline {9}{\ignorespaces Recognition rate for Experiment 2B for No Surprise (target-only) trials (black dotted line), and for Surprise trials at each SOA value. Error bars represent the standard error of the mean. \relax }}{19}{figure.caption.24}\protected@file@percent }
\newlabel{fig:2b-results}{{9}{19}{Recognition rate for Experiment 2B for No Surprise (target-only) trials (black dotted line), and for Surprise trials at each SOA value. Error bars represent the standard error of the mean. \relax }{figure.caption.24}{}}
\@writefile{toc}{\contentsline {subsection}{\numberline {8.1}Participants}{19}{subsection.8.1}\protected@file@percent }
\@writefile{toc}{\contentsline {subsection}{\numberline {8.2}Results}{19}{subsection.8.2}\protected@file@percent }
\@writefile{toc}{\contentsline {paragraph}{Trial Type.}{19}{section*.25}\protected@file@percent }
\@writefile{toc}{\contentsline {paragraph}{Session Time.}{19}{section*.26}\protected@file@percent }
\@writefile{toc}{\contentsline {paragraph}{Pattern.}{19}{section*.27}\protected@file@percent }
\@writefile{lof}{\contentsline {figure}{\numberline {10}{\ignorespaces Confusion matrices for Experiment 2B. Stimuli are columns, responses rows. Accuracy is in \%. Finger 2 is index finger, 3 is middle finger, 4 is ring, 5 is pinky. \relax }}{20}{figure.caption.28}\protected@file@percent }
\newlabel{fig:2b-confusion}{{10}{20}{Confusion matrices for Experiment 2B. Stimuli are columns, responses rows. Accuracy is in \%. Finger 2 is index finger, 3 is middle finger, 4 is ring, 5 is pinky. \relax }{figure.caption.28}{}}
\@writefile{toc}{\contentsline {paragraph}{Interactions.}{20}{section*.29}\protected@file@percent }
\@writefile{toc}{\contentsline {subsection}{\numberline {8.3}Discussion}{20}{subsection.8.3}\protected@file@percent }
\citation{VegaBermudez2001,King2010,Sathian1996}
\citation{Kaaresoja2005}
\citation{Roumen2015,Pokering}
\citation{CindyAVI2018}
\citation{VegaBermudez2001,King2010,Sathian1996}
\citation{Laksh2015}
\@writefile{toc}{\contentsline {section}{\numberline {9}General Discussion: Considerations and Recommendations for HCI Design}{21}{section.9}\protected@file@percent }
\@writefile{toc}{\contentsline {subsection}{\numberline {9.1}Use Distractors, not Treadmills, for Ecological Validity!}{21}{subsection.9.1}\protected@file@percent }
\@writefile{toc}{\contentsline {paragraph}{Recommendation.}{21}{section*.30}\protected@file@percent }
\@writefile{toc}{\contentsline {subsection}{\numberline {9.2}Optimal Fingers for Devices}{21}{subsection.9.2}\protected@file@percent }
\citation{Craig1995}
\citation{Gevins2003,Loft2007,Murphy2016,Murphy2018,Baldwin2012,Marsalia2016,Qian2014}
\citation{Marsalia2016}
\citation{Murphy2018,Murphy2016,Hillstrom2002,Dellacqua2006,Soto2002}
\citation{Ljungberg2012}
\@writefile{toc}{\contentsline {paragraph}{Recommendation.}{22}{section*.31}\protected@file@percent }
\@writefile{toc}{\contentsline {paragraph}{Recommendation.}{22}{section*.32}\protected@file@percent }
\@writefile{toc}{\contentsline {paragraph}{Recommendation.}{22}{section*.33}\protected@file@percent }
\@writefile{toc}{\contentsline {subsection}{\numberline {9.3}Active Compensation for Unexpected Environmental Events}{22}{subsection.9.3}\protected@file@percent }
\@writefile{toc}{\contentsline {paragraph}{Recommendation.}{22}{section*.34}\protected@file@percent }
\@writefile{toc}{\contentsline {paragraph}{Recommendation.}{22}{section*.35}\protected@file@percent }
\@writefile{toc}{\contentsline {subsection}{\numberline {9.4}Intelligent Dynamic Scheduling}{22}{subsection.9.4}\protected@file@percent }
\citation{SandraInteract2019}
\citation{Chun2002}
\citation{Egeth1997,Asplund2010,Horstmann2015}
\citation{Folk1992,Folk2002}
\@writefile{toc}{\contentsline {paragraph}{Recommendation.}{23}{section*.36}\protected@file@percent }
\@writefile{toc}{\contentsline {paragraph}{Recommendation.}{23}{section*.37}\protected@file@percent }
\@writefile{toc}{\contentsline {paragraph}{Recommendation.}{23}{section*.38}\protected@file@percent }
\@writefile{toc}{\contentsline {subsection}{\numberline {9.5}Case Study: Multimodal Feedback for Digital Maps}{23}{subsection.9.5}\protected@file@percent }
\@writefile{toc}{\contentsline {section}{\numberline {10}General Discussion: To Psychological Theory and Back Again}{23}{section.10}\protected@file@percent }
\citation{Craig1995,Hillstrom2002,Craig1982}
\citation{Craig1982,Enriquez2008,Weisenberger1982,Gallace2006}
\citation{Craig1982,Craig1995,Enriquez2008}
\citation{Craig1995,Enriquez2008,Weisenberger1982}
\citation{Laksh2015}
\citation{Damour2014}
\citation{Craig1995}
\citation{Asplund2010,Horstmann2015,Folk1992,Folk2002,Vachon2017}
\citation{Parmentier2011,Ljungberg2012}
\citation{Dux2009}
\citation{Hillstrom2002,Dellacqua2006}
\citation{Hillstrom2002,Dellacqua2006,Murphy2018}
\citation{Asplund2010b,Horstmann2015,Folk1992,Folk2002}
\citation{Asplund2010,Horstmann2015}
\citation{Vachon2017}
\citation{Parmentier2011,Ljungberg2012}
\citation{Folk1992,Folk2002}
\@writefile{toc}{\contentsline {subsection}{\numberline {10.1}Attentional Capture}{24}{subsection.10.1}\protected@file@percent }
\@writefile{toc}{\contentsline {subsection}{\numberline {10.2}Effect Timecourse Within Trials}{24}{subsection.10.2}\protected@file@percent }
\@writefile{toc}{\contentsline {subsection}{\numberline {10.3}Effect Timecourse Across the Session}{24}{subsection.10.3}\protected@file@percent }
\citation{Asplund2010,Horstmann2015,Yamaguchi1991}
\citation{Alvina2015,Lee2010,Yatani2009,Yatani2012}
\citation{Obana2019}
\@writefile{toc}{\contentsline {section}{\numberline {11}Limitations}{25}{section.11}\protected@file@percent }
\bibstyle{ACM-Reference-Format}
\bibdata{nokia}
\bibcite{Alvina2015}{{1}{2015}{{Alvina et~al\unhbox \voidb@x \hbox {.}}}{{Alvina, Zhao, Perrault, Azh, Roumen, and Fjeld}}}
\bibcite{Asplund2014}{{2}{2014}{{Asplund et~al\unhbox \voidb@x \hbox {.}}}{{Asplund, Fougnie, Zughni, Martin, and Marois}}}
\bibcite{Asplund2010}{{3}{2010b}{{Asplund et~al\unhbox \voidb@x \hbox {.}}}{{Asplund, Todd, Snyder, Gilbert, and Marois}}}
\bibcite{Asplund2010b}{{4}{2010a}{{Asplund et~al\unhbox \voidb@x \hbox {.}}}{{Asplund, Todd, Snyder, and Marois}}}
\bibcite{Baldwin2012}{{5}{2012}{{Baldwin et~al\unhbox \voidb@x \hbox {.}}}{{Baldwin, Spence, Bliss, Brill, Wogalter, Mayhorn, and Ferris}}}
\bibcite{SandraInteract2019}{{6}{2019}{{Bardot et~al\unhbox \voidb@x \hbox {.}}}{{Bardot, Serrano, Perrault, Zhao, and Jouffrais}}}
\bibcite{Barr2013}{{7}{2013}{{Barr et~al\unhbox \voidb@x \hbox {.}}}{{Barr, Levy, Scheepers, and Tily}}}
\bibcite{Bates2015}{{8}{2015}{{Bates et~al\unhbox \voidb@x \hbox {.}}}{{Bates, M{\"a}chler, Bolker, and Walker}}}
\@writefile{toc}{\contentsline {section}{\numberline {12}Conclusion}{26}{section.12}\protected@file@percent }
\@writefile{toc}{\contentsline {section}{References}{26}{section*.40}\protected@file@percent }
\bibcite{Benjamini1995}{{9}{1995}{{Benjamini and Hochberg}}{{Benjamini and Hochberg}}}
\bibcite{Brouwer2010}{{10}{2010}{{Brouwer and Van~Erp}}{{Brouwer and Van~Erp}}}
\bibcite{Carrasco2004}{{11}{2004}{{Carrasco et~al\unhbox \voidb@x \hbox {.}}}{{Carrasco, Ling, and Read}}}
\bibcite{Chen2008}{{12}{2008}{{Chen and Terrence}}{{Chen and Terrence}}}
\bibcite{CindyAVI2018}{{13}{2018}{{Chen et~al\unhbox \voidb@x \hbox {.}}}{{Chen, Perrault, Roy, and Wyse}}}
\bibcite{Cholewiak1984}{{14}{1984}{{Cholewiak and Craig}}{{Cholewiak and Craig}}}
\bibcite{Chun2002}{{15}{2002}{{Chun and Marois}}{{Chun and Marois}}}
\bibcite{Craig1982}{{16}{1982}{{Craig}}{{Craig}}}
\bibcite{Craig1995}{{17}{1995}{{Craig and Evans}}{{Craig and Evans}}}
\bibcite{Damour2014}{{18}{2014}{{D'Amour and Harris}}{{D'Amour and Harris}}}
\bibcite{Dellacqua2006}{{19}{2006}{{Dell'Acqua et~al\unhbox \voidb@x \hbox {.}}}{{Dell'Acqua, Jolic{\oe }ur, Sessa, and Turatto}}}
\bibcite{Donchin2000}{{20}{2000}{{Donchin et~al\unhbox \voidb@x \hbox {.}}}{{Donchin, Spencer, and Wijesinghe}}}
\bibcite{Dux2009}{{21}{2009}{{Dux and Marois}}{{Dux and Marois}}}
\bibcite{Egeth1997}{{22}{1997}{{Egeth and Yantis}}{{Egeth and Yantis}}}
\bibcite{Enriquez2008}{{23}{2008}{{Enriquez and MacLean}}{{Enriquez and MacLean}}}
\bibcite{Font2013}{{24}{2013}{{F.~Font}}{{F.~Font}}}
\bibcite{Folk2002}{{25}{2002}{{Folk et~al\unhbox \voidb@x \hbox {.}}}{{Folk, Leber, and Egeth}}}
\bibcite{Folk1992}{{26}{1992}{{Folk et~al\unhbox \voidb@x \hbox {.}}}{{Folk, Remington, and Johnston}}}
\bibcite{Fox2011}{{27}{2011}{{Fox and Weisberg}}{{Fox and Weisberg}}}
\bibcite{Gallace2006}{{28}{2006}{{Gallace et~al\unhbox \voidb@x \hbox {.}}}{{Gallace, Tan, and Spence}}}
\bibcite{Gevins2003}{{29}{2003}{{Gevins and Smith}}{{Gevins and Smith}}}
\bibcite{Gibson2005}{{30}{2005}{{Gibson and Craig}}{{Gibson and Craig}}}
\bibcite{Hillstrom2002}{{31}{2002}{{Hillstrom et~al\unhbox \voidb@x \hbox {.}}}{{Hillstrom, Shapiro, and Spence}}}
\bibcite{Hoggan2007}{{32}{2007}{{Hoggan and Brewster}}{{Hoggan and Brewster}}}
\bibcite{Hoggan2008}{{33}{2008}{{Hoggan et~al\unhbox \voidb@x \hbox {.}}}{{Hoggan, Kaaresoja, Laitinen, and Brewster}}}
\bibcite{Horstmann2015}{{34}{2015}{{Horstmann}}{{Horstmann}}}
\bibcite{Pokering}{{35}{2018}{{Je et~al\unhbox \voidb@x \hbox {.}}}{{Je, Lee, Kim, Chan, Yang, and Bianchi}}}
\bibcite{Je2017}{{36}{2017}{{Je et~al\unhbox \voidb@x \hbox {.}}}{{Je, Rooney, Chan, and Bianchi}}}
\bibcite{Kaaresoja2005}{{37}{2005}{{Kaaresoja and Linjama}}{{Kaaresoja and Linjama}}}
\bibcite{Katayama1998}{{38}{1998}{{Katayama and Polich}}{{Katayama and Polich}}}
\bibcite{King2010}{{39}{2010}{{King et~al\unhbox \voidb@x \hbox {.}}}{{King, Donlin, and Hannaford}}}
\bibcite{Kochhar2012}{{40}{2012}{{Kochhar et~al\unhbox \voidb@x \hbox {.}}}{{Kochhar, Walter J.~Talamonti, and Tijerina}}}
\bibcite{Laksh2015}{{41}{2015}{{Lakshminarayanan et~al\unhbox \voidb@x \hbox {.}}}{{Lakshminarayanan, Lauer, Ramakrishnan, Webster, and Seo}}}
\bibcite{Lee2010}{{42}{2010}{{Lee and Starner}}{{Lee and Starner}}}
\bibcite{Ljungberg2012}{{43}{2012}{{Ljungberg and Parmentier}}{{Ljungberg and Parmentier}}}
\bibcite{Loft2007}{{44}{2007}{{Loft et~al\unhbox \voidb@x \hbox {.}}}{{Loft, Sanderson, Neal, and Mooij}}}
\bibcite{Mars2008}{{45}{2008}{{Mars et~al\unhbox \voidb@x \hbox {.}}}{{Mars, Debener, Gladwin, Harrison, Haggard, Rothwell, and Bestmann}}}
\bibcite{Marsalia2016}{{46}{2016}{{Marsalia et~al\unhbox \voidb@x \hbox {.}}}{{Marsalia, Ferris, Benden, and Zheng}}}
\bibcite{Mcbride2017}{{47}{2017}{{McBride et~al\unhbox \voidb@x \hbox {.}}}{{McBride, Tran, and Letowski}}}
\bibcite{Merlo2011}{{48}{2011}{{Merlo and Hancock}}{{Merlo and Hancock}}}
\bibcite{Murphy2016}{{49}{2016}{{Murphy and Dalton}}{{Murphy and Dalton}}}
\bibcite{Murphy2018}{{50}{2018}{{Murphy and Dalton}}{{Murphy and Dalton}}}
\bibcite{Obana2019}{{51}{2020}{{Obana et~al\unhbox \voidb@x \hbox {.}}}{{Obana, Lim, and Asplund}}}
\bibcite{Parmentier2011}{{52}{2011}{{Parmentier et~al\unhbox \voidb@x \hbox {.}}}{{Parmentier, Ljungberg, Elsley, and Lindkvist}}}
\bibcite{Peirce2007}{{53}{2007}{{Peirce}}{{Peirce}}}
\bibcite{Qian2014}{{54}{2014}{{Qian et~al\unhbox \voidb@x \hbox {.}}}{{Qian, Kuber, Sears, and Stanwyck}}}
\bibcite{Roumen2015}{{55}{2015}{{Roumen et~al\unhbox \voidb@x \hbox {.}}}{{Roumen, Perrault, and Zhao}}}
\bibcite{Saket2013}{{56}{2013}{{Saket et~al\unhbox \voidb@x \hbox {.}}}{{Saket, Prasojo, Huang, and Zhao}}}
\bibcite{Sathian1996}{{57}{1996}{{Sathian and Zangaladze}}{{Sathian and Zangaladze}}}
\bibcite{Sergent2004}{{58}{2004}{{Sergent and Dehaene}}{{Sergent and Dehaene}}}
\bibcite{Shen2006}{{59}{2006}{{Shen and Mondor}}{{Shen and Mondor}}}
\bibcite{Soto2002}{{60}{2002}{{Soto-Faraco et~al\unhbox \voidb@x \hbox {.}}}{{Soto-Faraco, Spence, Fairbank, Kingstone, Hillstrom, and Shapiro}}}
\bibcite{Squires1975}{{61}{1975}{{Squires et~al\unhbox \voidb@x \hbox {.}}}{{Squires, Squires, and Hillyard}}}
\bibcite{Stanley2006}{{62}{2006}{{Stanley}}{{Stanley}}}
\bibcite{Vachon2017}{{63}{2017}{{Vachon et~al\unhbox \voidb@x \hbox {.}}}{{Vachon, Labont{\'e}, and Marsh}}}
\bibcite{VegaBermudez2001}{{64}{2001}{{Vega-Bermudez and Johnson}}{{Vega-Bermudez and Johnson}}}
\bibcite{Weinstein1962}{{65}{1962}{{Weinstein}}{{Weinstein}}}
\bibcite{Weisenberger1982}{{66}{1982}{{Weisenberger and Craig}}{{Weisenberger and Craig}}}
\bibcite{Yamaguchi1991}{{67}{1991}{{Yamaguchi and Knight}}{{Yamaguchi and Knight}}}
\bibcite{Yatani2012}{{68}{2012}{{Yatani et~al\unhbox \voidb@x \hbox {.}}}{{Yatani, Gergle, and Truong}}}
\bibcite{Yatani2009}{{69}{2009}{{Yatani and Truong}}{{Yatani and Truong}}}
\bibcite{Zheng2013}{{70}{2013}{{{Ying Zheng} et~al\unhbox \voidb@x \hbox {.}}}{{{Ying Zheng}, Su, and Morrell}}}
\newlabel{tocindent-1}{0pt}
\newlabel{tocindent0}{0pt}
\newlabel{tocindent1}{9.29999pt}
\newlabel{tocindent2}{16.14998pt}
\newlabel{tocindent3}{0pt}
\newlabel{TotPages}{{29}{29}{}{page.29}{}}
